{
    "languageserver": {
        "terraform": {
            "command": "terraform-ls",
            "args": ["serve"],
            "filetypes": [
                "terraform",
                "tf"
            ],
            "initializationOptions": {},
            "settings": {}
        },
        "graphql": {
            "command": "graphql-lsp",
            "args": ["server", "-m", "stream"],
            // customize filetypes to your needs
            "filetypes": ["typescript", "typescriptreact", "graphql"]
          }
    },
    "rust-analyzer.cargo.allFeatures": true,
    "explorer.icon.enableNerdfont": true,
    "explorer.icon.enableVimDevicons": false,
    "rust-analyzer.cargo.loadOutDirsFromCheck": true,
    "rust-analyzer.procMacro.enable": true
}
